<svg xmlns="http://www.w3.org/2000/svg" width="32" height="32" viewBox="0 0 32 32">
  <title>Shield</title>
  <path d="M31.489 14.706c-.054.378-.107.757-.163 1.135-.114.78-.24 1.558-.341 2.34a19.777 19.777 0 0 1-.715 3.262 5.028 5.028 0 0 1-.213.567c-.168.378-.348.752-.542 1.17-.157.011-.325-.084-.47-.255-.189-.224-.393-.435-.584-.659s-.46-.238-.717-.301c-.199-.049-.388-.138-.584-.201-.271-.089-.54-.185-.815-.252-.233-.058-.373-.178-.343-.397.093-.693.185-1.383.304-2.072.084-.488.252-.964.304-1.453.063-.603.049-1.214.061-1.821.016-.803.04-1.605.03-2.408-.016-1.174-.187-2.322-.609-3.426-.019-.051.017-.142.058-.191.094-.115.229-.191.248-.369.007-.059.121-.124.198-.159.477-.213.965-.404 1.434-.633.423-.206.735-.526.843-1.009.026-.117.091-.227.138-.339l.077-.038c.045.07.084.147.138.208.056.061.122.14.194.15.297.044.406.261.512.497.366.806.761 1.602.937 2.48.037.184.082.369.105.554.066.554.056 1.128.203 1.658.154.554.18 1.121.306 1.674.005.094.005.192.005.29zm-1.343 5.02c.101-.086.212-.131.231-.203.087-.32.163-.647.208-.976.012-.082-.084-.219-.168-.264-.112-.061-.212.021-.247.149-.019.066-.03.136-.04.205-.023.128-.002.289-.072.38-.131.17-.105.341-.075.516.007.061.087.11.163.194zm-1.067 2.873c.117.012.24-.105.205-.219-.08-.264-.215-.497-.484-.619-.119-.054-.191-.032-.224.112-.051.227.269.701.504.726zm-1.306-.967c.115-.005.248.023.241-.168-.007-.215-.156-.373-.369-.373-.143 0-.219.073-.222.219-.005.206.112.313.35.322zm-.362-1.089c-.009-.175-.107-.247-.269-.248-.152-.002-.187.091-.18.217.009.152.073.247.241.248.152.002.206-.08.208-.217zm-.48-9.724c0-.161.011-.306-.007-.448-.005-.04-.084-.079-.136-.1-.019-.007-.073.035-.089.065-.093.177-.005.388.233.483zm.014-1.072c.152-.178.152-.191.026-.325-.177.17-.178.184-.026.325zM15.413 31.999c-.668-.093-1.326-.229-2.015-.149-.327.038-.68-.047-1.007-.129-.588-.149-1.156-.387-1.749-.497-.57-.107-.993-.458-1.48-.707-.691-.353-1.284-.838-1.873-1.333-.089-.075-.163-.168-.269-.278.135-.068.233-.136.341-.17.796-.245 1.534-.593 2.184-1.125.364-.297.806-.28 1.205-.04.156.093.35.119.523.187.138.054.296.098.399.194a1.5 1.5 0 0 0 1.009.442c.397.019.792.093 1.189.107.535.017 1.074.012 1.609-.005.908-.028 1.819-.03 2.72-.124.712-.075 1.41-.273 2.113-.423.252-.054.497-.145.749-.199a3.893 3.893 0 0 0 1.364-.567c.15-.101.266-.087.413.021.586.428 1.118.909 1.527 1.511.17.25.154.283-.1.465-.028.019-.061.042-.073.07-.15.339-.47.502-.728.736-.444.402-.965.656-1.511.873-.264.105-.54.173-.811.261-.198.065-.392.143-.593.198-.145.04-.297.058-.446.073-.105.012-.215-.011-.317.011-.75.159-1.497.339-2.253.479-.292.054-.6.012-.899.03-.227.014-.453.054-.679.084-.178.003-.36.003-.542.003zM.513 16.931c.149-.7.357-1.397.24-2.123-.096-.593-.016-1.161.103-1.742.094-.467.136-.939.421-1.341a.333.333 0 0 0 .047-.115c.297-1.128.995-2.03 1.721-2.894.329-.392.796-.672 1.221-.974.213-.152.324-.082.378.177.014.068.024.138.032.206.056.533.245.999.682 1.34.103.08.191.185.282.282.245.261.32.278.659.154.03-.011.063-.012.14-.028-.072.192-.122.355-.191.509-.278.631-.561 1.261-.845 1.891-.224.5-.32 1.027-.311 1.57.016.953-.077 1.896-.147 2.844-.056.752.065 1.518.108 2.277.018.32.042.64.058.958.002.044-.014.11-.045.133-.296.212-.509.535-.909.612-.129.024-.264.184-.336.315-.217.397-.352.82-.287 1.287.012.086-.03.178-.054.31-.268-.175-.5-.313-.715-.476-.054-.042-.07-.156-.073-.24-.003-.08.03-.164.047-.247.033-.156-.016-.21-.187-.238-.355-.058-.679-.22-.899-.514-.17-.227-.292-.491-.435-.74a2.455 2.455 0 0 1-.332-1.364 1.83 1.83 0 0 0-.066-.493c-.093-.364-.203-.722-.306-1.083.002-.084.002-.168.002-.252zM21.426 25.434c.044-.129.091-.227.107-.331.032-.206.047-.415.066-.623.009-.1.052-.222-.103-.25-.14-.026-.273.017-.292.166-.035.287-.044.577-.054.867-.002.08.04.163.047.247.032.303-.075.486-.38.561-.535.129-1.074.271-1.618.334-1.102.129-2.204.259-3.298.444-.476.08-.978.002-1.466.033-1.042.066-2.002-.275-2.956-.603-.427-.147-.808-.437-1.194-.684-.079-.051-.121-.203-.126-.31-.021-.476-.018-.951-.035-1.425a1.082 1.082 0 0 0-.091-.402c-.196-.441-.411-.871-.609-1.31a.82.82 0 0 0-.486-.462c-.117-.042-.227-.112-.348-.143s-.254-.028-.38-.049c-.301-.052-.602-.1-.895-.175-.059-.016-.107-.138-.129-.22-.073-.257-.199-.474-.35-.7-.173-.262-.268-.598-.317-.915-.089-.579-.101-1.168-.182-1.749-.049-.357-.03-.705-.014-1.062.019-.453-.023-.908-.035-1.361-.003-.145-.011-.294.009-.435.093-.642.17-1.285.301-1.92.098-.47.268-.925.407-1.385.079-.261.257-.446.427-.654.565-.694 1.324-1.158 1.976-1.744.25-.226.4-.502.409-.843.004-.152.051-.264.196-.341.058-.03.105-.11.124-.178.065-.206.185-.373.381-.449.29-.114.591-.198.89-.292.224-.072.474-.1.668-.217.584-.353 1.226-.439 1.885-.498.477-.044.95-.138 1.425-.206.082-.012.166-.018.248-.011.39.03.78.054 1.168.098.624.068 1.249.138 1.87.229.53.077 1.06.17 1.583.285.191.042.369.159.544.259.381.219.449.212.728-.126.194-.238.385-.208.483.084.079.238.143.483.198.726.077.338.229.626.49.857.387.343.761.698 1.152 1.035.082.072.21.11.322.124.191.024.308.11.364.294.484 1.59.864 3.197.796 4.878-.024.602-.005 1.205-.052 1.803-.051.654-.201 1.301-.226 1.955-.03.78-.259 1.511-.42 2.26a1.33 1.33 0 0 0-.033.416c.023.217-.068.334-.255.423-.719.339-1.32.813-1.693 1.534a5.565 5.565 0 0 0-.589 1.974c-.023.208-.124.296-.278.371-.15.073-.231-.032-.311-.133-.021-.038-.058-.059-.049-.052zm-5.308-.115c.343-.028.579-.051.815-.068a7.814 7.814 0 0 1 1.962.094c.075.014.138.086.212.115.108.044.234.121.332.098.143-.033.142-.187.114-.318-.056-.259-.11-.519-.175-.775-.082-.32-.154-.642-.065-.971.094-.35.191-.701.304-1.046.196-.598.598-1 1.201-1.191.219-.068.444-.119.666-.178.241-.063.479-.142.602-.38.367-.708.658-1.41.324-2.244-.226-.567-.336-1.18-.474-1.779-.047-.205-.038-.427-.024-.64.014-.24.072-.476.091-.715.021-.264-.002-.533.037-.796.115-.797.019-1.576-.205-2.338a82.206 82.206 0 0 0-.871-2.796 1.126 1.126 0 0 0-.36-.495c-.512-.409-1.046-.794-1.7-.962a2.856 2.856 0 0 1-.526-.206c-.586-.282-1.214-.418-1.847-.525a.918.918 0 0 0-.448.054c-.385.142-.756.322-1.142.46-.505.18-1.02.334-1.53.495-.126.04-.255.077-.386.086a.69.69 0 0 0-.488.247c-.096.101-.224.212-.353.236a.584.584 0 0 0-.411.282c-.063.094-.187.15-.285.22-.031.023-.084.023-.108.051-.376.453-.691.941-.71 1.553a71.888 71.888 0 0 0-.044 2.748c.002.315.049.621-.143.902-.031.045-.021.121-.026.184-.042.549-.082 1.1-.128 1.649a2.735 2.735 0 0 1-.54 1.452 3.816 3.816 0 0 0-.399.616c-.063.131-.108.325-.058.449.227.558.526 1.077.915 1.544.324.388.721.525 1.215.428.124-.024.28-.033.386.021.647.329 1.189.775 1.536 1.436.383.736.554 1.499.408 2.328-.079.442.065.574.511.535a3.59 3.59 0 0 1 .647.011c.427.038.85.093 1.17.129zm-5.35-.117c.004.147.024.289.213.292.194.002.215-.149.212-.292-.004-.135.004-.294-.203-.297-.21-.003-.227.138-.222.297zm9.635-.028c-.007-.142-.021-.282-.219-.282-.192 0-.18.142-.178.264.002.119-.024.268.177.262.159-.005.222-.091.22-.245zm1.82-15.057c-.196.191-.11.413.156.462l-.156-.462zM21.905 5.659c-.1-.178-.206-.355-.299-.537-.142-.28-.378-.303-.561-.044-.019.028-.035.059-.054.089-.124.21-.152.203-.348.065-.157-.11-.332-.22-.516-.262-.617-.143-1.242-.254-1.864-.38-1.034-.208-2.078-.093-3.115-.072-1.613.033-3.137.477-4.587 1.182a3.376 3.376 0 0 1-.152.068c-.32.136-.462.082-.642-.212-.217-.35-.444-.693-.675-1.035-.061-.093-.147-.168-.222-.25-.114-.121-.257-.163-.4-.086a.549.549 0 0 1-.579-.033c-.275-.187-.575-.194-.876-.236l-.159-.023c.091-.094.145-.201.226-.226.317-.1.467-.334.514-.631.063-.39.283-.63.633-.766.371-.145.747-.275 1.116-.425.131-.054.247-.15.369-.224.196-.119.383-.261.593-.346A19.578 19.578 0 0 1 14.137.15c.502-.096.995-.056 1.495-.059.644-.005 1.285-.068 1.927-.091.206-.007.425.005.621.065.514.157 1.037.198 1.57.205.275.004.549.073.824.112.124.018.248.044.373.047.25.007.486.038.682.217a.323.323 0 0 0 .191.07c.283.005.528.105.757.269.352.252.724.479 1.063.747.462.364.392.89-.142 1.13-.318.143-.491.381-.619.696-.184.449-.415.881-.616 1.324-.066.143-.103.301-.156.451L22 5.637a.84.84 0 0 1-.094.021z"></path>
  <path d="M11.004 18.3c-.054-.369.091-.691.29-.995.14-.215.296-.273.519-.156.425.224.911.231 1.343.411.301.126.651.136.904.387.065.065.205.08.306.073.173-.014.301.033.393.178.026.04.059.077.091.115.46.561.416 1.203-.094 1.737-.17.177-.332.289-.582.231a.27.27 0 0 0-.105.007c-.628.138-1.17-.059-1.684-.402a4.8 4.8 0 0 0-.764-.432c-.448-.196-.612-.542-.617-.999v-.156zm.647-.444c-.231.159-.236.297-.122.448.023.03.07.072.091.065.038-.014.096-.061.093-.091-.007-.129-.035-.257-.061-.421zM21.456 18.416c-.065.261-.103.49-.18.705-.128.357-.352.586-.768.64-.46.059-.909.196-1.362.311-.359.091-.946-.185-1.109-.551a6.041 6.041 0 0 1-.278-.743.428.428 0 0 1 .032-.313c.271-.448.624-.803 1.145-.958.441-.131.88-.271 1.317-.416.159-.052.243-.003.324.133.052.089.152.147.222.227.154.177.311.352.446.542.091.131.145.29.212.423zM15.331 22.186c0-.285-.018-.572.007-.855.014-.161.082-.324.156-.47.096-.192.219-.373.332-.556.182-.297.47-.332.712-.086.357.364.605.784.652 1.301.032.338.061.675.084 1.014a.685.685 0 0 1-.035.266c-.075.206-.184.241-.366.117-.189-.131-.367-.276-.556-.411-.21-.149-.304-.117-.385.121-.105.306-.282.348-.477.082-.105-.142-.143-.334-.212-.504a2.01 2.01 0 0 0 .087-.019z"></path>
</svg>